"stop_id","name","lat","lon","URI","binari"
"58","MILANO ROMOLO","45.4434","9.16748","http://www.wikidata.org/entity/Q3970131","2"
"193","ALESSANDRIA","44.9089","8.60751","http://www.wikidata.org/entity/Q3968863","11"
"199","ARQUATA SCRIVIA","44.6923","8.88511","http://www.wikidata.org/entity/Q3968909","7"
"332","TORTONA","44.8998","8.86169","http://www.wikidata.org/entity/Q3971162","3"
"365","ABBADIA LARIANA","45.8956","9.335","http://www.wikidata.org/entity/Q3968805","2"
"367","ABBIATEGRASSO","45.3975","8.92042","http://www.wikidata.org/entity/Q3968808","2"
"374","ACQUANEGRA CREMONESE","45.1718","9.88864","http://www.wikidata.org/entity/Q3968820","2"
"380","POZZUOLO MARTESANA","45.5086","9.45669","http://www.wikidata.org/entity/Q3970602","2"
"381","PREGNANA MILANESE","45.5078","8.99653","http://www.wikidata.org/entity/Q3970610","2"
"388","AIRUNO","45.7553","9.4222","http://www.wikidata.org/entity/Q924258","2"
"397","ALBANO S.ALESSANDRO","45.6829","9.76744","http://www.wikidata.org/entity/Q3968843","1"
"400","ALBATE CAMERLATA","45.777","9.07284","http://www.wikidata.org/entity/Q3968849","10"
"401","ALBATE-TRECALLO","45.7776","9.09585","http://www.wikidata.org/entity/Q3968846","1"
"405","ALBIZZATE SOLBIATE ARNO","45.7233","8.80618","http://www.wikidata.org/entity/Q3968853","2"
"406","ALBONESE","45.298","8.71459","http://www.wikidata.org/entity/Q21130455","2"
"407","ALBUZZANO","45.1725","9.26169","http://www.wikidata.org/entity/Q3968854","1"
"424","AMBIVERE MAPELLO","45.7221","9.55037","http://www.wikidata.org/entity/Q3968869","2"
"438","ANZANO DEL PARCO","45.7652","9.20245","http://www.wikidata.org/entity/Q3968881","1"
"451","ARCISATE","45.8587","8.86265","http://www.wikidata.org/entity/Q45048320","2"
"453","ARCORE","45.6237","9.3228","http://www.wikidata.org/entity/Q3968893","2"
"455","ARDENNO MASINO","46.1616","9.65094","http://www.wikidata.org/entity/Q3968894","2"
"457","ARENA PO","45.0821","9.36039","http://www.wikidata.org/entity/Q3968896","1"
"461","ARONA","45.7556","8.55942","http://www.wikidata.org/entity/Q3968903","8"
"472","ASOLA","45.2205","10.4026","http://www.wikidata.org/entity/Q3968916","1"
"576","BAGNOLO MELLA","45.4284","10.1838","http://www.wikidata.org/entity/Q3968949","2"
"588","BARBIANELLO","45.0723","9.2056","http://www.wikidata.org/entity/Q3968972","1"
"615","BELGIOIOSO","45.1644","9.31697","http://www.wikidata.org/entity/Q3969010","2"
"618","BELLANO TARTAVALLE TERME","46.0399","9.30278","http://www.wikidata.org/entity/Q3969011","2"
"632","BERGAMO","45.6905","9.67498","http://www.wikidata.org/entity/Q800465","7"
"634","BESANA","45.7027","9.28317","http://www.wikidata.org/entity/Q3969030","2"
"635","BESNATE","45.6955","8.76125","http://www.wikidata.org/entity/Q3969029","1"
"636","BESOZZO","45.8423","8.66329","http://www.wikidata.org/entity/Q3969032","2"
"641","BIANZONE","46.1794","10.1132","http://www.wikidata.org/entity/Q3969033","1"
"642","BIASSONO-LESMO PARCO","45.6323","9.2983","http://www.wikidata.org/entity/Q3969036","1"
"654","BISUSCHIO-VIGGIU'","45.8706","8.88791","http://www.wikidata.org/entity/Q3969043","1"
"698","BORGO LAVEZZARO","45.3187","8.70308","http://www.wikidata.org/entity/Q21130407","2"
"710","BORGOLOMBARDO","45.4045","9.27046","http://www.wikidata.org/entity/Q3969100","2"
"725","BOZZOLO","45.1073","10.473","http://www.wikidata.org/entity/Q1122437","3"
"731","BRENNA-ALZATE","45.7542","9.18324","http://www.wikidata.org/entity/Q3969114","1"
"734","BRESCIA","45.5321","10.2144","http://www.wikidata.org/entity/Q727319","10"
"736","BRESSANA ARGINE","45.0728","9.13708","http://www.wikidata.org/entity/Q3969116","1"
"737","BRESSANA BOTTARONE","45.0863","9.11091","http://www.wikidata.org/entity/Q3969117","3"
"746","BRONI","45.0662","9.25888","http://www.wikidata.org/entity/Q3969123","3"
"766","BUSTO ARSIZIO","45.616","8.8647","http://www.wikidata.org/entity/Q800599","3"
"768","BUTTAFAVA","45.6214","9.30129","http://www.wikidata.org/entity/Q3969139","1"
"779","ALBAIRATE-VERMEZZO","45.4044","8.95823","http://www.wikidata.org/entity/Q3968839","4"
"780","CESANO BOSCONE","45.4309","9.09134","http://www.wikidata.org/entity/Q3969384","2"
"799","CALCIO","45.5333","9.84329","http://www.wikidata.org/entity/Q16608896","2"
"801","CALDE'","45.9456","8.66318","http://www.wikidata.org/entity/Q16608900","1"
"807","CALOLZIOCORTE OLGINATE","45.8018","9.42712","http://www.wikidata.org/entity/Q3969161","4"
"811","CALUSCO","45.6843","9.47058","http://www.wikidata.org/entity/Q3969165","3"
"813","CALVISANO","45.3467","10.3491","http://www.wikidata.org/entity/Q3969167","1"
"819","CAMNAGO-LENTATE","45.6694","9.13268","http://www.wikidata.org/entity/Q3969173","4"
"858","CANEGRATE","45.5693","8.92641","http://www.wikidata.org/entity/Q1161044","2"
"866","CANNETO SULL'OGLIO","45.1502","10.3718","http://www.wikidata.org/entity/Q3969198","1"
"872","CANTU'","45.7523","9.13008","http://www.wikidata.org/entity/Q3969203","2"
"873","CANTU'-CERMENATE","45.7161","9.09953","http://www.wikidata.org/entity/Q338761","2"
"883","CAPRALBA","45.444","9.64002","http://www.wikidata.org/entity/Q3969215","1"
"891","CARATE-CALO'","45.6764","9.25227","http://www.wikidata.org/entity/Q3969219","1"
"892","CARAVAGGIO","45.4913","9.6379","http://www.wikidata.org/entity/Q3969220","2"
"899","CARIMATE","45.6972","9.1075","http://www.wikidata.org/entity/Q339411","3"
"905","CARNATE USMATE","45.6532","9.37506","http://www.wikidata.org/entity/Q3969233","7"
"926","CASALBUTTANO","45.2554","9.96243","http://www.wikidata.org/entity/Q3969254","2"
"932","CASALETTO VAPRIO","45.4092","9.63149","http://www.wikidata.org/entity/Q3969259","2"
"934","CASALMAGGIORE","44.9929","10.4248","http://www.wikidata.org/entity/Q3969261","2"
"937","CASALPUSTERLENGO","45.1823","9.6536","http://www.wikidata.org/entity/Q3969264","5"
"947","CASLETTO-ROGENO","45.7861","9.27544","http://www.wikidata.org/entity/Q3969270","1"
"948","CASORATE SEMPIONE","45.675","8.74396","http://www.wikidata.org/entity/Q3969273","2"
"950","CASSAGO-NIBIONNO-BULCIAGO","45.7461","9.2799","http://www.wikidata.org/entity/Q3969274","1"
"951","CASSANO D'ADDA","45.5145","9.51278","http://www.wikidata.org/entity/Q3969282","3"
"964","CASTEGGIO","45.0172","9.12491","http://www.wikidata.org/entity/Q3969287","2"
"975","CASTEL S.GIOVANNI","45.0631","9.43686","http://www.wikidata.org/entity/Q15057803","3"
"997","CASTELLEONE","45.3018","9.76772","http://www.wikidata.org/entity/Q3969314","2"
"1005","CASTELLUCCHIO","45.1474","10.6474","http://www.wikidata.org/entity/Q15617291","2"
"1011","CASTELNUOVO DEL GARDA","45.4314","10.7585","http://www.wikidata.org/entity/Q16608998","2"
"1025","CASTIONE ANDEVENNO","46.1616","9.80603","http://www.wikidata.org/entity/Q16609005","2"
"1029","CASTRONNO","45.745","8.81056","http://www.wikidata.org/entity/Q3969328","2"
"1039","S.MARTINO CAVA","45.1448","9.11517","http://www.wikidata.org/entity/Q3970827","2"
"1040","CAVA TIGOZZI","45.1718","9.88875","http://www.wikidata.org/entity/Q3969346","2"
"1046","CAVARIA OGGIONA IERAGO","45.6982","8.80374","http://www.wikidata.org/entity/Q3969356","2"
"1066","CERNUSCO-MERATE","45.695","9.39697","http://www.wikidata.org/entity/Q3969378","2"
"1069","CERTOSA DI PAVIA","45.2564","9.15422","http://www.wikidata.org/entity/Q3969376","2"
"1085","CHIARI","45.5399","9.92647","http://www.wikidata.org/entity/Q16609031","3"
"1087","CHIASSO","45.8323","9.03154","http://www.wikidata.org/entity/Q683236","5"
"1089","CHIAVENNA","46.3197","9.40487","http://www.wikidata.org/entity/Q3969397","3"
"1093","CHIGNOLO PO","45.1608","9.4941","http://www.wikidata.org/entity/Q3969400","2"
"1099","CHIUDUNO","45.6505","9.847","http://www.wikidata.org/entity/Q16609037","1"
"1100","CHIURO","46.1646","9.99225","http://www.wikidata.org/entity/Q3969407","1"
"1111","CISANO CAPRINO BERGAMASCO","45.7397","9.4745","http://www.wikidata.org/entity/Q3969415","2"
"1119","CIVATE","45.8313","9.35276","http://www.wikidata.org/entity/Q3969424","1"
"1128","COCCAGLIO","45.5611","9.97787","http://www.wikidata.org/entity/Q3969441","2"
"1134","CODOGNO","45.1551","9.70165","http://www.wikidata.org/entity/Q3969442","6"
"1139","COLICO","46.1378","9.3756","http://www.wikidata.org/entity/Q3969450","5"
"1151","COLOGNE","45.5767","9.93539","http://www.wikidata.org/entity/Q16609073","1"
"1153","COLORNO","44.928","10.3829","http://www.wikidata.org/entity/Q16268786","3"
"1158","COMO S.GIOVANNI","45.8091","9.07293","http://www.wikidata.org/entity/Q260886","3"
"1174","CORBETTA-S.STEFANO TICINO","45.4809","8.91791","http://www.wikidata.org/entity/Q337413","2"
"1187","CORSICO","45.4345","9.10501","http://www.wikidata.org/entity/Q3969487","2"
"1188","CORTEOLONA","45.1596","9.37552","http://www.wikidata.org/entity/Q3969486","2"
"1189","COSIO TRAONA","46.1354","9.52553","http://www.wikidata.org/entity/Q16609105","2"
"1193","COSTA MASNAGA","45.7635","9.28512","http://www.wikidata.org/entity/Q3969492","2"
"1201","CREMA","45.3667","9.69409","http://www.wikidata.org/entity/Q800636","3"
"1202","CREMONA","45.143","10.0179","http://www.wikidata.org/entity/Q800637","8"
"1208","CUCCIAGO","45.7408","9.08215","http://www.wikidata.org/entity/Q339435","2"
"1225","DELEBIO","46.1386","9.46114","http://www.wikidata.org/entity/Q16609137","2"
"1228","DERVIO","46.0776","9.30614","http://www.wikidata.org/entity/Q3969523","2"
"1229","DESENZANO DEL GARDA-SIRMIONE","45.4631","10.5363","http://www.wikidata.org/entity/Q3969525","4"
"1230","DESIO","45.6202","9.21822","http://www.wikidata.org/entity/Q3969526","2"
"1253","DOMODOSSOLA","46.1154","8.29625","http://www.wikidata.org/entity/Q3969541","6"
"1258","DORIO","46.1027","9.31922","http://www.wikidata.org/entity/Q3969539","1"
"1259","DORMELLETTO","45.7236","8.58214","http://www.wikidata.org/entity/Q16609149","2"
"1263","DUBINO","46.1727","9.43237","http://www.wikidata.org/entity/Q3969547","1"
"1311","FERRERA LOMELLINA","45.1119","8.86288","http://www.wikidata.org/entity/Q16609179","1"
"1317","FIDENZA","44.8676","10.0633","http://www.wikidata.org/entity/Q3969603","8"
"1324","FIORENZUOLA","44.9287","9.91733","http://www.wikidata.org/entity/Q3969613","3"
"1329","FIUMELATTE","45.999","9.29271","http://www.wikidata.org/entity/Q16609187","1"
"1386","GAGGIANO","45.4088","9.03134","http://www.wikidata.org/entity/Q3969672","2"
"1393","GALLARATE","45.6596","8.79843","http://www.wikidata.org/entity/Q3969679","8"
"1402","GAMBOLO'-REMONDO'","45.2353","8.79975","http://www.wikidata.org/entity/Q3969680","1"
"1404","GARBAGNA","45.3856","8.66642","http://www.wikidata.org/entity/Q21130382","2"
"1407","GARLASCO","45.1989","8.92709","http://www.wikidata.org/entity/Q3969685","2"
"1413","GAZZADA SCHIANNO MORAZZONE","45.7787","8.8248","http://www.wikidata.org/entity/Q3969694","2"
"1415","GAZZO PIEVE S.GIACOMO","45.137","10.19","http://www.wikidata.org/entity/Q3969692","2"
"1425","GHEDI","45.4094","10.2803","http://www.wikidata.org/entity/Q3969724","3"
"1467","GROPELLO CAIROLI","45.1732","8.99165","http://www.wikidata.org/entity/Q3969758","1"
"1473","GRUMELLO DEL MONTE","45.6342","9.86295","http://www.wikidata.org/entity/Q16609288","2"
"1492","INDUNO OLONA","45.8471","8.83876","http://www.wikidata.org/entity/Q45048345","2"
"1528","LAMBRINIA","45.1643","9.52735","http://www.wikidata.org/entity/Q3969909","1"
"1542","LAVENO MOMBELLO","45.9032","8.62439","http://www.wikidata.org/entity/Q3969930","4"
"1550","LECCO","45.8562","9.39343","http://www.wikidata.org/entity/Q739355","5"
"1551","LECCO MAGGIANICO","45.8312","9.41201","http://www.wikidata.org/entity/Q3969934","2"
"1554","LEGNANO","45.5936","8.91092","http://www.wikidata.org/entity/Q3969940","3"
"1575","LIERNA","45.9609","9.30279","http://www.wikidata.org/entity/Q16609350","2"
"1581","LISSONE-MUGGIO'","45.6061","9.23542","http://www.wikidata.org/entity/Q3969967","2"
"1583","LOCATE TRIULZI","45.3599","9.22167","http://www.wikidata.org/entity/Q3969974","2"
"1584","LODI","45.3092","9.4976","http://www.wikidata.org/entity/Q571342","5"
"1585","LOMELLO","45.1174","8.79916","http://www.wikidata.org/entity/Q16609356","2"
"1586","LONATO","45.4573","10.4869","http://www.wikidata.org/entity/Q16609359","3"
"1593","LUINO","45.9969","8.73741","http://www.wikidata.org/entity/Q3969990","4"
"1596","PIZZALE-LUNGAVILLA","45.0497","9.06913","http://www.wikidata.org/entity/Q3970506","2"
"1604","MACHERIO-CANONICA","45.6456","9.2868","http://www.wikidata.org/entity/Q1121534","1"
"1618","MAGENTA","45.468","8.88068","http://www.wikidata.org/entity/Q3970015","2"
"1626","MALEO","45.1701","9.75534","http://www.wikidata.org/entity/Q3970017","1"
"1632","MANDELLO DEL LARIO","45.9151","9.32194","http://www.wikidata.org/entity/Q3970028","2"
"1634","MANERBIO","45.357","10.1325","http://www.wikidata.org/entity/Q3970033","2"
"1639","MANTOVA","45.1587","10.7833","http://www.wikidata.org/entity/Q3970044","10"
"1645","MARCARIA","45.1244","10.5337","http://www.wikidata.org/entity/Q15617296","3"
"1682","MEDE","45.0951","8.74255","http://www.wikidata.org/entity/Q16609406","1"
"1688","MELEGNANO","45.3565","9.31939","http://www.wikidata.org/entity/Q3970083","3"
"1690","MELZO","45.5022","9.41939","http://www.wikidata.org/entity/Q3970085","2"
"1698","MERONE","45.7803","9.24342","http://www.wikidata.org/entity/Q3970090","3"
"1704","MEZZANI RONDANI","44.9516","10.3905","http://www.wikidata.org/entity/Q17637385","1"
"1707","MILANO BOVISA FNM","45.5027","9.15949","http://www.wikidata.org/entity/Q801180","8"
"1708","MILANO CERTOSA","45.5069","9.13452","http://www.wikidata.org/entity/Q3970119","7"
"1711","MILANO GRECO PIRELLI","45.5123","9.21391","http://www.wikidata.org/entity/Q801183","7"
"1712","MILANO LAMBRATE","45.4848","9.23675","http://www.wikidata.org/entity/Q801184","12"
"1713","MILANO LANCETTI","45.4954","9.17591","http://www.wikidata.org/entity/Q920889","4"
"1714","MILANO PORTA GARIBALDI SOTTERRANEA","45.4851","9.18642","http://www.wikidata.org/entity/Q22815083","2"
"1715","MILANO PORTA GARIBALDI","45.4845","9.18787","http://www.wikidata.org/entity/Q801187","22"
"1716","MILANO PORTA GENOVA","45.4532","9.16966","http://www.wikidata.org/entity/Q766538","3"
"1717","MILANO PORTA ROMANA","45.4458","9.21313","http://www.wikidata.org/entity/Q801188","2"
"1718","MILANO PORTA VITTORIA","45.4599","9.22384","http://www.wikidata.org/entity/Q3970127","4"
"1719","MILANO REPUBBLICA","45.4804","9.19831","http://www.wikidata.org/entity/Q3671690","2"
"1720","MILANO ROGOREDO","45.4335","9.23871","http://www.wikidata.org/entity/Q801189","8"
"1721","MILANO S.CRISTOFORO","45.4429","9.13083","http://www.wikidata.org/entity/Q933274","5"
"1723","MILANO PORTA VENEZIA","45.4763","9.20786","http://www.wikidata.org/entity/Q631384","2"
"1728","MILANO CENTRALE","45.4852","9.20295","http://www.wikidata.org/entity/Q801193","24"
"1739","MIRADOLO TERME","45.162","9.44988","http://www.wikidata.org/entity/Q16609431","1"
"1749","PIEVE EMANUELE","45.3403","9.20404","http://www.wikidata.org/entity/Q13422429","2"
"1754","MOIANA","45.7872","9.25577","http://www.wikidata.org/entity/Q3970160","1"
"1761","MOLTENO","45.7808","9.30178","http://www.wikidata.org/entity/Q3970167","3"
"1808","MONTELLO GORLAGO","45.6703","9.80863","http://www.wikidata.org/entity/Q16609455","3"
"1835","MONTIRONE","45.4513","10.2393","http://www.wikidata.org/entity/Q16609464","2"
"1841","MONZA","45.5782","9.27297","http://www.wikidata.org/entity/Q801199","7"
"1842","MONZA SOBBORGHI","45.5819","9.2845","http://www.wikidata.org/entity/Q801198","1"
"1846","MORBEGNO","46.1366","9.56894","http://www.wikidata.org/entity/Q16609467","7"
"1848","MORENGO BARIANO","45.5217","9.70325","http://www.wikidata.org/entity/Q3970228","2"
"1853","MORNAGO CIMBRO","45.7299","8.7345","http://www.wikidata.org/entity/Q3970232","2"
"1858","MORTARA","45.2522","8.73214","http://www.wikidata.org/entity/Q3970235","10"
"1863","MOTTA S.DAMIANO","45.1782","9.22185","http://www.wikidata.org/entity/Q3970238","2"
"1899","NICORVO","45.2755","8.67143","http://www.wikidata.org/entity/Q16609491","1"
"1917","NOVARA","45.4511","8.62451","http://www.wikidata.org/entity/Q590626","13"
"1919","NOVATE-MEZZOLA","46.2167","9.44622","http://www.wikidata.org/entity/Q3970318","5"
"1930","OGGIONO","45.7889","9.33767","http://www.wikidata.org/entity/Q3970331","2"
"1934","OLCIO","45.938","9.314","http://www.wikidata.org/entity/Q3970336","1"
"1936","OLEVANO","45.2121","8.71204","http://www.wikidata.org/entity/Q3970338","2"
"1937","OLGIATE-CALCO-BRIVIO","45.7292","9.40356","http://www.wikidata.org/entity/Q3970347","2"
"1940","OLMENETA","45.2314","10.0319","http://www.wikidata.org/entity/Q3970345","3"
"1949","ORIO LITTA","45.167","9.55063","http://www.wikidata.org/entity/Q3970351","1"
"1964","OSNAGO","45.6786","9.38719","http://www.wikidata.org/entity/Q3970363","2"
"1969","OSPEDALETTO LODIGIANO","45.1692","9.57534","http://www.wikidata.org/entity/Q1109832","2"
"1973","OSPITALETTO MANTOVANO","45.1298","10.6047","http://www.wikidata.org/entity/Q15617293","1"
"1974","OSPITALETTO TRAVAGLIATO","45.5461","10.0743","http://www.wikidata.org/entity/Q16609543","2"
"1998","PADERNO ROBBIATE","45.6784","9.43933","http://www.wikidata.org/entity/Q3970384","2"
"2015","PALAZZOLO SULL'OGLIO","45.6024","9.8949","http://www.wikidata.org/entity/Q3970403","5"
"2019","PALESTRO","45.3072","8.53438","http://www.wikidata.org/entity/Q16609563","1"
"2033","PARABIAGO","45.5525","8.94656","http://www.wikidata.org/entity/Q3970420","3"
"2035","PARMA","44.81","10.3282","http://www.wikidata.org/entity/Q3970427","8"
"2036","PARONA LOMELLINA","45.2802","8.78026","http://www.wikidata.org/entity/Q3970421","2"
"2046","PAVIA","45.1888","9.14482","http://www.wikidata.org/entity/Q179302","5"
"2099","PESCHIERA DEL GARDA","45.4376","10.7024","http://www.wikidata.org/entity/Q3970454","3"
"2111","PIACENZA","45.052","9.70619","http://www.wikidata.org/entity/Q613204","8"
"2112","PIADENA","45.1276","10.3702","http://www.wikidata.org/entity/Q934668","8"
"2138","PIEVE ALBIGNOLA","45.1162","8.95963","http://www.wikidata.org/entity/Q16609608","1"
"2143","PINAROLO PO","45.0734","9.17028","http://www.wikidata.org/entity/Q3970485","2"
"2147","PIOLTELLO LIMITO","45.4861","9.32949","http://www.wikidata.org/entity/Q3970498","5"
"2151","PIONA","46.1248","9.35065","http://www.wikidata.org/entity/Q3970496","2"
"2164","PIZZIGHETTONE","45.1819","9.77711","http://www.wikidata.org/entity/Q3970508","2"
"2195","POGGIRIDENTI-TRESIVIO-PIATEDA","46.167","9.934","http://www.wikidata.org/entity/Q3970514","1"
"2211","PONTE D'ADDA","45.1844","9.79079","http://www.wikidata.org/entity/Q3970534","1"
"2218","PONTE IN VALTELLINA","46.1629","9.97594","http://www.wikidata.org/entity/Q3970538","2"
"2222","PONTE S.MARCO-CALCINATO","45.4739","10.4091","http://www.wikidata.org/entity/Q16609648","2"
"2223","PONTE S.PIETRO","45.699","9.58451","http://www.wikidata.org/entity/Q3970528","3"
"2228","PONTECURONE","44.9619","8.92993","http://www.wikidata.org/entity/Q3970541","2"
"2235","PONTIDA","45.7301","9.5116","http://www.wikidata.org/entity/Q3970551","1"
"2250","PORTO CERESIO","45.9038","8.9004","http://www.wikidata.org/entity/Q3970568","3"
"2260","PORTO VALTRAVAGLIA","45.9584","8.67408","http://www.wikidata.org/entity/Q3970576","2"
"2275","PRATA CAMPORTACCIO","46.3077","9.39772","http://www.wikidata.org/entity/Q16609691","1"
"2301","PAVIA PORTA GARIBALDI","45.1842","9.16671","http://www.wikidata.org/entity/Q3970428","1"
"2335","REMEDELLO SOPRA","45.2783","10.379","http://www.wikidata.org/entity/Q3970655","2"
"2336","REMEDELLO SOTTO","45.2574","10.3883","http://www.wikidata.org/entity/Q3970656","1"
"2337","RENATE-VEDUGGIO","45.7285","9.27986","http://www.wikidata.org/entity/Q3970658","1"
"2345","RHO","45.5241","9.04362","http://www.wikidata.org/entity/Q3970669","5"
"2391","ROBBIO","45.2934","8.59716","http://www.wikidata.org/entity/Q16609726","2"
"2392","ROBECCO-PONTEVICO","45.2662","10.0787","http://www.wikidata.org/entity/Q3970684","2"
"2419","ROMANO","45.5237","9.75349","http://www.wikidata.org/entity/Q16609747","3"
"2435","ROTTOFRENO","45.0605","9.54909","http://www.wikidata.org/entity/Q3970727","2"
"2437","ROVATO","45.5522","10.0011","http://www.wikidata.org/entity/Q3970733","1"
"2477","S.CASSIANO VALCHIAVENNA","46.2742","9.39787","http://www.wikidata.org/entity/Q16609797","1"
"2481","S.CRISTINA E BISSONE","45.1605","9.40112","http://www.wikidata.org/entity/Q3970877","1"
"2487","S.DONATO MILANESE","45.4195","9.2545","http://www.wikidata.org/entity/Q3970788","2"
"2504","S.GIACOMO DI TEGLIO","46.1598","10.0273","http://www.wikidata.org/entity/Q3970801","1"
"2513","S.GIOVANNI IN CROCE","45.0758","10.3772","http://www.wikidata.org/entity/Q3970807","2"
"2518","S.GIULETTA","45.0356","9.17939","http://www.wikidata.org/entity/Q3970879","2"
"2520","S.GIULIANO MILANESE","45.3915","9.28636","http://www.wikidata.org/entity/Q3970812","2"
"2557","S.MICHELE IN BOSCO","45.1225","10.5732","http://www.wikidata.org/entity/Q15617295","1"
"2564","S.NICOLO","45.0589","9.60635","http://www.wikidata.org/entity/Q3970839","2"
"2573","S.PIETRO BERBENNO","46.1612","9.74055","http://www.wikidata.org/entity/Q16609822","2"
"2589","S.STEFANO LODIGIANO","45.122","9.72303","http://www.wikidata.org/entity/Q3970895","2"
"2603","S.ZENO FOLZANO","45.4915","10.2119","http://www.wikidata.org/entity/Q3970855","2"
"2604","S.ZENONE AL LAMBRO","45.3379","9.36135","http://www.wikidata.org/entity/Q3970857","2"
"2611","SAIRANO ZINASCO","45.1338","9.03023","http://www.wikidata.org/entity/Q16609765","1"
"2612","SALA AL BARRO-GALBIATE","45.8213","9.35925","http://www.wikidata.org/entity/Q3970759","1"
"2632","SAMOLACO","46.2478","9.42237","http://www.wikidata.org/entity/Q16609783","1"
"2636","SANGIANO","45.8745","8.63092","http://www.wikidata.org/entity/Q3970856","1"
"2640","SANNAZZARO","45.1055","8.90521","http://www.wikidata.org/entity/Q16609841","2"
"2651","SARMATO","45.0629","9.49116","http://www.wikidata.org/entity/Q3970903","2"
"2655","SARTIRANA","45.1118","8.66994","http://www.wikidata.org/entity/Q3970905","2"
"2686","SECUGNAGO","45.2233","9.58705","http://www.wikidata.org/entity/Q3970935","3"
"2696","SEREGNO","45.6462","9.2029","http://www.wikidata.org/entity/Q3970949","12"
"2697","SERIATE","45.6832","9.72462","http://www.wikidata.org/entity/Q3970945","2"
"2713","SESTO CALENDE","45.726","8.6285","http://www.wikidata.org/entity/Q3970956","4"
"2716","SESTO S.GIOVANNI","45.5408","9.23885","http://www.wikidata.org/entity/Q3970960","5"
"2757","SOMMA LOMBARDO","45.6864","8.71292","http://www.wikidata.org/entity/Q3971015","3"
"2760","SONDRIO","46.1673","9.87287","http://www.wikidata.org/entity/Q727305","4"
"2763","SORESINA","45.2832","9.85669","http://www.wikidata.org/entity/Q3971018","3"
"2790","STRADELLA","45.0793","9.30082","http://www.wikidata.org/entity/Q801470","4"
"2793","STRESA","45.8846","8.5316","http://www.wikidata.org/entity/Q3971050","4"
"2808","TALAMONA","46.1399","9.60058","http://www.wikidata.org/entity/Q16609941","1"
"2820","TAVAZZANO","45.3264","9.40296","http://www.wikidata.org/entity/Q3971092","3"
"2833","TERNATE VARANO BORGHI","45.7818","8.70059","http://www.wikidata.org/entity/Q3971100","2"
"2836","TERNO","45.6885","9.53617","http://www.wikidata.org/entity/Q3971101","2"
"2850","TIRANO","46.2151","10.1668","http://www.wikidata.org/entity/Q3971118","4"
"2881","TORRE DE' PICENARDI","45.1373","10.2869","http://www.wikidata.org/entity/Q3971148","2"
"2889","TORREBERETTI","45.0604","8.66085","http://www.wikidata.org/entity/Q3971154","3"
"2894","TORRILE S.POLO","44.8858","10.3626","http://www.wikidata.org/entity/Q17637606","2"
"2906","TRAVEDONA BIANDRONNO","45.8097","8.69613","http://www.wikidata.org/entity/Q3971174","1"
"2909","TRECATE","45.4286","8.73927","http://www.wikidata.org/entity/Q3971183","2"
"2910","TRECELLA","45.5128","9.48066","http://www.wikidata.org/entity/Q428491","2"
"2916","TRESENDA-APRICA-TEGLIO","46.1622","10.0838","http://www.wikidata.org/entity/Q3971191","2"
"2919","TREVIGLIO","45.5152","9.58861","http://www.wikidata.org/entity/Q3971195","11"
"2920","TREVIGLIO OVEST","45.5219","9.58057","http://www.wikidata.org/entity/Q3971193","2"
"2923","TREZZANO SUL NAVIGLIO","45.4202","9.06685","http://www.wikidata.org/entity/Q3971194","2"
"2930","TRIUGGIO-PONTE ALBIATE","45.659","9.2668","http://www.wikidata.org/entity/Q3971201","2"
"2934","TROMELLO","45.2119","8.87215","http://www.wikidata.org/entity/Q3971203","1"
"2973","VALENZA","45.0235","8.62607","http://www.wikidata.org/entity/Q3971232","2"
"2976","VALLE LOMELLINA","45.1505","8.68583","http://www.wikidata.org/entity/Q3971234","2"
"2981","VALMADONNA","44.9727","8.6109","http://www.wikidata.org/entity/Q3971237","2"
"2982","VALMADRERA","45.8465","9.36807","http://www.wikidata.org/entity/Q3971238","2"
"2987","VANZAGO POGLIANO","45.525","8.99632","http://www.wikidata.org/entity/Q583058","2"
"2993","VARENNA ESINO","46.0149","9.28621","http://www.wikidata.org/entity/Q3971248","2"
"2994","VARESE","45.8164","8.83236","http://www.wikidata.org/entity/Q801552","5"
"3012","VERBANIA-PALLANZA","45.9438","8.47209","http://www.wikidata.org/entity/Q3971269","3"
"3013","VERCEIA","46.2027","9.45855","http://www.wikidata.org/entity/Q16610039","1"
"3014","VERCELLI","45.3298","8.41675","http://www.wikidata.org/entity/Q1458422","5"
"3015","VERCURAGO S.GIROLAMO","45.8127","9.42256","http://www.wikidata.org/entity/Q3971265","2"
"3016","VERDELLO DALMINE","45.6057","9.61995","http://www.wikidata.org/entity/Q3971267","3"
"3018","VERGIATE","45.7173","8.69336","http://www.wikidata.org/entity/Q3971266","2"
"3022","VEROLANUOVA","45.325","10.0837","http://www.wikidata.org/entity/Q3971274","2"
"3025","VERONA PORTA NUOVA","45.4289","10.9825","http://www.wikidata.org/entity/Q908640","12"
"3032","VESPOLATE","45.3514","8.67187","http://www.wikidata.org/entity/Q21130386","2"
"3038","VIADANA BRESCIANA","45.3737","10.3319","http://www.wikidata.org/entity/Q16610048","2"
"3048","VIDALENGO","45.5177","9.63686","http://www.wikidata.org/entity/Q3971296","2"
"3053","VIGEVANO","45.3128","8.86189","http://www.wikidata.org/entity/Q3971297","2"
"3061","VIGNATE","45.4943","9.37634","http://www.wikidata.org/entity/Q3971304","4"
"3071","VILLA DI TIRANO","46.1963","10.1305","http://www.wikidata.org/entity/Q3971323","1"
"3074","VILLA RAVERIO","45.6904","9.26175","http://www.wikidata.org/entity/Q3971311","1"
"3092","VILLAMAGGIORE","45.3204","9.19049","http://www.wikidata.org/entity/Q3971328","2"
"3095","VILLANOVA D'ARDENGHI","45.157","9.03743","http://www.wikidata.org/entity/Q3971333","1"
"3098","RHO FIERA","45.5156","9.08864","http://www.wikidata.org/entity/Q603047","6"
"3099","MILANO VILLAPIZZONE","45.5022","9.15108","http://www.wikidata.org/entity/Q937168","6"
"3101","VILLASANTA","45.6033","9.30505","http://www.wikidata.org/entity/Q3971335","2"
"3109","VILLETTA MALAGNINO","45.1369","10.1121","http://www.wikidata.org/entity/Q3971340","2"
"3114","VISANO","45.3154","10.3633","http://www.wikidata.org/entity/Q16610082","2"
"3119","VITTUONE ARLUNO","45.491","8.9476","http://www.wikidata.org/entity/Q3971353","2"
"3123","VOGHERA","44.9977","9.00876","http://www.wikidata.org/entity/Q801568","7"
"3134","ZINASCO NUOVO","45.1245","8.99974","http://www.wikidata.org/entity/Q16610099","1"
"3169","MILANO FORLANINI","45.4716","9.24588","http://www.wikidata.org/entity/Q3970116","4"
"3183","BERGAMO OSPEDALE","45.6882","9.63844","http://www.wikidata.org/entity/Q43380696","1"
"3372","MADIGNANO","45.3437","9.73027","http://www.wikidata.org/entity/Q3970004","1"
"3380","SAIRANO","45.1389","9.04711","http://www.wikidata.org/entity/Q16609762","1"
"3468","MILANO DATEO","45.4657","9.21702","http://www.wikidata.org/entity/Q3460862","2"
"3507","SEGRATE","45.4807","9.29831","http://www.wikidata.org/entity/Q3970939","2"
"3589","NOVARA FN","45.4521","8.62644","http://www.wikidata.org/entity/Q3970317","3"
"3594","ARCENE","45.5745","9.6055","http://www.wikidata.org/entity/Q3968889","2"
"3595","LEVATE","45.6239","9.62794","http://www.wikidata.org/entity/Q3969951","2"
"3596","STEZZANO","45.6587","9.64493","http://www.wikidata.org/entity/Q3971041","2"
"5046","SEVESO","45.6484","9.14025","http://www.wikidata.org/entity/Q3970970","4"
"5048","SARONNO","45.6253","9.03075","http://www.wikidata.org/entity/Q3970909","9"
"5049","CERIANO LAGHETTO-SOLARO","45.625","9.0801","http://www.wikidata.org/entity/Q3969372","3"
"5050","CERIANO LAGHETTO-GROANE","45.6293","9.11704","http://www.wikidata.org/entity/Q3969371","2"
"5051","EDOLO","46.177","10.3295","http://www.wikidata.org/entity/Q16609155","3"
"5052","SEVESO-BARUCCANA","45.6391","9.16701","http://www.wikidata.org/entity/Q3970968","1"
"5053","MILANO CADORNA","45.4684","9.1756","http://www.wikidata.org/entity/Q801185","10"
"5054","MILANO DOMODOSSOLA","45.4812","9.16204","http://www.wikidata.org/entity/Q3113699","4"
"5056","MILANO QUARTO OGGIARO","45.5191","9.14573","http://www.wikidata.org/entity/Q3970129","4"
"5057","NOVATE MILANESE","45.5331","9.1323","http://www.wikidata.org/entity/Q3970320","4"
"5058","BOLLATE CENTRO","45.5427","9.12292","http://www.wikidata.org/entity/Q3969056","4"
"5059","BOLLATE NORD","45.5527","9.11202","http://www.wikidata.org/entity/Q3969059","4"
"5060","GARBAGNATE PARCO GROANE","45.5711","9.09098","http://www.wikidata.org/entity/Q3969683","4"
"5061","GARBAGNATE MILANESE","45.5803","9.08017","http://www.wikidata.org/entity/Q3969682","5"
"5062","CESATE","45.5908","9.06643","http://www.wikidata.org/entity/Q3969389","4"
"5063","CARONNO PERTUSELLA","45.5982","9.0579","http://www.wikidata.org/entity/Q3969235","4"
"5064","SARONNO SUD","45.6124","9.04553","http://www.wikidata.org/entity/Q3970907","6"
"5065","MILANO AFFORI","45.5212","9.16764","http://www.wikidata.org/entity/Q3970109","3"
"5066","MILANO BRUZZANO PARCO NORD","45.532","9.17235","http://www.wikidata.org/entity/Q3970115","3"
"5069","PADERNO DUGNANO","45.5649","9.16134","http://www.wikidata.org/entity/Q3184002","2"
"5070","PALAZZOLO MILANESE","45.581","9.15662","http://www.wikidata.org/entity/Q3183997","3"
"5071","VAREDO","45.5956","9.15333","http://www.wikidata.org/entity/Q3183981","2"
"5072","BOVISIO MASCIAGO-MOMBELLO","45.612","9.14132","http://www.wikidata.org/entity/Q3183918","2"
"5073","CESANO MADERNO","45.6308","9.14193","http://www.wikidata.org/entity/Q3969388","3"
"5086","MEDA","45.6625","9.15892","http://www.wikidata.org/entity/Q3970076","3"
"5087","CABIATE","45.6759","9.1684","http://www.wikidata.org/entity/Q3093591","1"
"5088","MARIANO COMENSE","45.6936","9.18141","http://www.wikidata.org/entity/Q3970048","3"
"5089","CARUGO-GIUSSANO","45.7059","9.19887","http://www.wikidata.org/entity/Q3969248","1"
"5090","AROSIO","45.7183","9.21015","http://www.wikidata.org/entity/Q3968904","2"
"5091","INVERIGO","45.7402","9.22457","http://www.wikidata.org/entity/Q3969819","2"
"5092","LAMBRUGO-LURAGO","45.7615","9.23852","http://www.wikidata.org/entity/Q3969910","1"
"5093","BRENO","45.959","10.3058","http://www.wikidata.org/entity/Q33414593","3"
"5094","ERBA","45.8131","9.23007","http://www.wikidata.org/entity/Q3969566","3"
"5095","PONTELAMBRO-CASTELMARTE","45.8292","9.2256","http://www.wikidata.org/entity/Q3970544","1"
"5096","CASLINO D'ERBA","45.8351","9.2323","http://www.wikidata.org/entity/Q3969272","1"
"5097","CANZO","45.8491","9.2703","http://www.wikidata.org/entity/Q3969204","1"
"5098","CANZO-ASSO","45.855","9.26938","http://www.wikidata.org/entity/Q3969205","3"
"5151","DARFO-CORNA","45.8843","10.1811","http://www.wikidata.org/entity/Q33415011","3"
"5152","PISOGNE","45.8066","10.1058","http://www.wikidata.org/entity/Q21615988","3"
"5154","ISEO","45.6566","10.0501","http://www.wikidata.org/entity/Q1118773","4"
"5262","RESCALDINA","45.6223","8.94666","http://www.wikidata.org/entity/Q3970661","2"
"5263","CASTELLANZA","45.6136","8.89395","http://www.wikidata.org/entity/Q3969312","2"
"5264","BUSTO ARSIZIO FN","45.6061","8.85134","http://www.wikidata.org/entity/Q3969143","4"
"5265","FERNO-LONATE POZZOLO","45.6085","8.7555","http://www.wikidata.org/entity/Q3969594","2"
"5266","MALPENSA AEROPORTO T.1","45.6271","8.71113","http://www.wikidata.org/entity/Q3970021","4"
"5276","MALPENSA AEROPORTO T.2","45.6502","8.72024","http://www.wikidata.org/entity/Q22319589","4"
"5309","GERENZANO TURATE","45.6456","9.00142","http://www.wikidata.org/entity/Q3969720","2"
"5310","CISLAGO","45.661","8.9775","http://www.wikidata.org/entity/Q3969416","2"
"5311","MOZZATE","45.6778","8.95513","http://www.wikidata.org/entity/Q3970241","2"
"5312","LOCATE VARESINO-CARBONATE","45.6899","8.93591","http://www.wikidata.org/entity/Q3969973","2"
"5313","TRADATE-ABBIATE-GUAZZONE","45.7019","8.91871","http://www.wikidata.org/entity/Q16609987","2"
"5314","TRADATE","45.7104","8.90696","http://www.wikidata.org/entity/Q3971171","3"
"5315","VENEGONO INFERIORE","45.7368","8.89521","http://www.wikidata.org/entity/Q16610033","2"
"5316","VENEGONO SUPERIORE-CASTIGLIONE","45.7581","8.8904","http://www.wikidata.org/entity/Q16610035","2"
"5317","VEDANO OLONA","45.7773","8.88701","http://www.wikidata.org/entity/Q16610031","2"
"5318","MALNATE","45.7954","8.87838","http://www.wikidata.org/entity/Q3970018","3"
"5319","VARESE FN","45.8184","8.83358","http://www.wikidata.org/entity/Q801553","4"
"5320","VARESE CASBENO","45.815","8.81142","http://www.wikidata.org/entity/Q3971249","2"
"5321","MOROSOLO-CASCIAGO","45.8266","8.77711","http://www.wikidata.org/entity/Q3970231","2"
"5322","BARASSO-COMERIO","45.8353","8.75113","http://www.wikidata.org/entity/Q3968968","2"
"5323","GAVIRATE","45.8457","8.71457","http://www.wikidata.org/entity/Q3969689","1"
"5324","GAVIRATE VERBANO","45.8512","8.7062","http://www.wikidata.org/entity/Q3969690","1"
"5325","COCQUIO-TREVISAGO","45.8603","8.68992","http://www.wikidata.org/entity/Q16609061","2"
"5326","GEMONIO","45.8778","8.67394","http://www.wikidata.org/entity/Q3969696","2"
"5327","CITTIGLIO","45.8925","8.66735","http://www.wikidata.org/entity/Q3969423","2"
"5328","LAVENO MOMBELLO FN","45.9086","8.61849","http://www.wikidata.org/entity/Q3969928","6"
"5329","GALLIATE","45.4811","8.69141","http://www.wikidata.org/entity/Q3969677","2"
"5332","TURBIGO","45.5283","8.73882","http://www.wikidata.org/entity/Q3971208","2"
"5333","CASTANO PRIMO","45.5559","8.77272","http://www.wikidata.org/entity/Q3969286","2"
"5334","VANZAGHELLO-MAGNAGO","45.5777","8.78779","http://www.wikidata.org/entity/Q3971245","2"
"5336","ROVELLO PORRO","45.6516","9.03635","http://www.wikidata.org/entity/Q3970738","2"
"5337","ROVELLASCA-MANERA","45.6657","9.03823","http://www.wikidata.org/entity/Q3970736","2"
"5338","LOMAZZO","45.6987","9.0363","http://www.wikidata.org/entity/Q3969977","2"
"5339","CASLINO AL PIANO","45.7111","9.04","http://www.wikidata.org/entity/Q3969271","2"
"5340","CADORAGO","45.7298","9.04098","http://www.wikidata.org/entity/Q3969144","2"
"5341","FINO MORNASCO","45.7466","9.04725","http://www.wikidata.org/entity/Q3969607","2"
"5342","PORTICHETTO-LUISAGO","45.7593","9.05036","http://www.wikidata.org/entity/Q3970560","2"
"5343","GRANDATE-BRECCIA","45.7814","9.05532","http://www.wikidata.org/entity/Q3969750","3"
"5344","COMO CAMERLATA","45.7846","9.07948","http://www.wikidata.org/entity/Q3969463","3"
"5345","COMO BORGHI","45.8049","9.09086","http://www.wikidata.org/entity/Q3969462","2"
"5346","COMO LAGO","45.8142","9.0842","http://www.wikidata.org/entity/Q800631","4"
"5348","MALONNO","46.1188","10.3167","http://www.wikidata.org/entity/Q21615982","2"
"5350","CEDEGOLO","46.0725","10.3501","http://www.wikidata.org/entity/Q34709061","2"
"5352","CAPO DI PONTE","46.0311","10.3463","http://www.wikidata.org/entity/Q33414056","2"
"5355","CIVIDATE-MALEGNO","45.9434","10.2687","http://www.wikidata.org/entity/Q34543671","3"
"5356","COGNO-ESINE","45.9294","10.2411","http://www.wikidata.org/entity/Q34705809","2"
"5357","PIAN DI BORNO","45.9161","10.2215","http://www.wikidata.org/entity/Q34705167","1"
"5359","BOARIO TERME","45.892","10.1908","http://www.wikidata.org/entity/Q33415678","1"
"5361","PIANCAMUNO-GRATACASOLO","45.84","10.1388","http://www.wikidata.org/entity/Q34700351","2"
"5362","TOLINE","45.7873","10.0883","http://www.wikidata.org/entity/Q34699656","1"
"5363","VELLO","45.7535","10.0825","http://www.wikidata.org/entity/Q34699038","1"
"5364","MARONE-ZONE","45.7384","10.0933","http://www.wikidata.org/entity/Q30894399","2"
"5365","SALE MARASINO","45.7128","10.1116","http://www.wikidata.org/entity/Q18420512","2"
"5366","SULZANO","45.6898","10.1008","http://www.wikidata.org/entity/Q34698328","1"
"5367","PILZONE","45.6742","10.0796","http://www.wikidata.org/entity/Q34697391","1"
"5368","PROVAGLIO-TIMOLINE","45.635","10.0353","http://www.wikidata.org/entity/Q3970617","1"
"5369","BORGONATO-ADRO","45.6222","10.02","http://www.wikidata.org/entity/Q3969095","1"
"5370","BORNATO-CALINO","45.5904","10.0329","http://www.wikidata.org/entity/Q3969097","3"
"5375","PADERNO","45.5869","10.087","http://www.wikidata.org/entity/Q3970382","1"
"5376","CASTEGNATO","45.5663","10.1182","http://www.wikidata.org/entity/Q3969288","2"
"5378","BORGO S.GIOVANNI","45.5433","10.1908","http://www.wikidata.org/entity/Q3969083","4"
"5379","CESANO MADERNO-GROANE","45.6305","9.13694","http://www.wikidata.org/entity/Q13528160","1"
"5409","CORMANO-CUSANO MILANINO","45.5501","9.17295","http://www.wikidata.org/entity/Q18812695","3"
"85099","STABIO","45.8501","8.94458","http://www.wikidata.org/entity/Q18420525","2"
